{
    "/js/app.js": "/js/app.js?id=05326dd0fcd42d79be30d99fac1fac68",
    "/js/manifest.js": "/js/manifest.js?id=7e5f9719bab985541a3af8bfae5a7806",
    "/css/app.css": "/css/app.css?id=11f06f95cbde3948f2dd20fecd8eb846",
    "/js/vendor.js": "/js/vendor.js?id=bc60b4fffa81e12104e2c497ecd61732"
}
